\relax 
\@writefile{toc}{\contentsline {chapter}{\numberline {4}Ciclos Termodin\IeC {\'a}micos}{4}}
\@writefile{lof}{\addvspace {10\p@ }}
\@writefile{lot}{\addvspace {10\p@ }}
\@writefile{toc}{\contentsline {section}{\numberline {4.1}Ciclo Otto}{4}}
\@writefile{toc}{\contentsline {section}{\numberline {4.2}Ciclo Diesel}{4}}
\@writefile{toc}{\contentsline {section}{\numberline {4.3}Ciclo Rankine}{4}}
\@writefile{toc}{\contentsline {section}{\numberline {4.4}Ciclo de Refrigeraci\IeC {\'o}n}{4}}
\@setckpt{ciclostermodinamicos}{
\setcounter{page}{5}
\setcounter{equation}{0}
\setcounter{enumi}{0}
\setcounter{enumii}{0}
\setcounter{enumiii}{0}
\setcounter{enumiv}{0}
\setcounter{footnote}{0}
\setcounter{mpfootnote}{0}
\setcounter{part}{0}
\setcounter{chapter}{4}
\setcounter{section}{4}
\setcounter{subsection}{0}
\setcounter{subsubsection}{0}
\setcounter{paragraph}{0}
\setcounter{subparagraph}{0}
\setcounter{figure}{0}
\setcounter{table}{0}
\setcounter{parentequation}{0}
}
