\relax 
\@writefile{toc}{\contentsline {chapter}{\numberline {1}Conceptos B\IeC {\'a}sicos de Termodin\IeC {\'a}mica}{1}}
\@writefile{lof}{\addvspace {10\p@ }}
\@writefile{lot}{\addvspace {10\p@ }}
\@writefile{toc}{\contentsline {section}{\numberline {1.1}Conceptos b\IeC {\'a}sicos}{1}}
\@writefile{toc}{\contentsline {section}{\numberline {1.2}Propiedades termodin\IeC {\'a}micas}{1}}
\@writefile{toc}{\contentsline {section}{\numberline {1.3}Leyes de los gases ideales}{1}}
\@writefile{toc}{\contentsline {section}{\numberline {1.4}Sustancias puras}{1}}
\@setckpt{conceptosbasicos}{
\setcounter{page}{2}
\setcounter{equation}{0}
\setcounter{enumi}{0}
\setcounter{enumii}{0}
\setcounter{enumiii}{0}
\setcounter{enumiv}{0}
\setcounter{footnote}{0}
\setcounter{mpfootnote}{0}
\setcounter{part}{0}
\setcounter{chapter}{1}
\setcounter{section}{4}
\setcounter{subsection}{0}
\setcounter{subsubsection}{0}
\setcounter{paragraph}{0}
\setcounter{subparagraph}{0}
\setcounter{figure}{0}
\setcounter{table}{0}
\setcounter{parentequation}{0}
}
