\relax 
\catcode `"\active 
\catcode `<\active 
\catcode `>\active 
\@nameuse{es@quoting}
\catcode `'\active 
\@input{portada.aux}
\select@language{spanish}
\@writefile{toc}{\select@language{spanish}}
\@writefile{lof}{\select@language{spanish}}
\@writefile{lot}{\select@language{spanish}}
\@input{introduccion.aux}
\@input{conceptosbasicos.aux}
\@input{primeraley.aux}
\@input{segundaley.aux}
\@input{ciclostermodinamicos.aux}
\@input{mecanismostransfer.aux}
\@input{bibliografia.aux}
