\relax 
\@writefile{toc}{\contentsline {chapter}{\numberline {5}Mecanismos de transferencia de calor en estado estable}{5}}
\@writefile{lof}{\addvspace {10\p@ }}
\@writefile{lot}{\addvspace {10\p@ }}
\@writefile{toc}{\contentsline {section}{\numberline {5.1}Conducci\IeC {\'o}n}{5}}
\@writefile{toc}{\contentsline {section}{\numberline {5.2}Convecci\IeC {\'o}n}{5}}
\@writefile{toc}{\contentsline {section}{\numberline {5.3}Radiaci\IeC {\'o}n}{5}}
\@writefile{toc}{\contentsline {section}{\numberline {5.4}Circuitos t\IeC {\'e}rmicos: Analog\IeC {\'\i }a el\IeC {\'e}ctrica en paredes planas}{5}}
\@setckpt{mecanismostransfer}{
\setcounter{page}{6}
\setcounter{equation}{0}
\setcounter{enumi}{0}
\setcounter{enumii}{0}
\setcounter{enumiii}{0}
\setcounter{enumiv}{0}
\setcounter{footnote}{0}
\setcounter{mpfootnote}{0}
\setcounter{part}{0}
\setcounter{chapter}{5}
\setcounter{section}{4}
\setcounter{subsection}{0}
\setcounter{subsubsection}{0}
\setcounter{paragraph}{0}
\setcounter{subparagraph}{0}
\setcounter{figure}{0}
\setcounter{table}{0}
\setcounter{parentequation}{0}
}
